{
  "project_info": {
    "project_number": "364361465719",
    "project_id": "flutter-fireauth-3bebb",
    "storage_bucket": "flutter-fireauth-3bebb.appspot.com"
  },
  "client": [
    {
      "client_info": {
        "mobilesdk_app_id": "1:364361465719:android:84824bf7722efc38f82b72",
        "android_client_info": {
          "package_name": "com.example.firebase"
        }
      },
      "oauth_client": [
        {
          "client_id": "364361465719-13gepu06en27ecck252ven3f51dr64pc.apps.googleusercontent.com",
          "client_type": 1,
          "android_info": {
            "package_name": "com.example.firebase",
            "certificate_hash": "cbe77b50f0a587b3fc234106aadeea21e01a5180"
          }
        },
        {
          "client_id": "364361465719-vl456i6p192kfehsvddesdb2o2acl9j2.apps.googleusercontent.com",
          "client_type": 3
        }
      ],
      "api_key": [
        {
          "current_key": "AIzaSyBR0VlBBgjUokRucNo_GgKJv1mzltokFOY"
        }
      ],
      "services": {
        "appinvite_service": {
          "other_platform_oauth_client": [
            {
              "client_id": "364361465719-vl456i6p192kfehsvddesdb2o2acl9j2.apps.googleusercontent.com",
              "client_type": 3
            }
          ]
        }
      }
    }
  ],
  "configuration_version": "1"
}